{
    "api": {
        "id": null,
        "worker-id": null
    },
    "http": {
        "enabled": false,
        "host": "127.0.0.1",
        "port": 0,
        "access-token": null,
        "restricted": true
    },
    "autosave": true,
    "version": 1,
    "background": false,
    "colors": true,
    "randomx": {
        "init": -1,
        "numa": true
    },
    "cpu": {
        "enabled": false,
        "huge-pages": true,
        "hw-aes": null,
        "priority": null,
        "memory-pool": false,
        "max-threads-hint": 100,
        "asm": true,
        "argon2-impl": null,
        "cn/0": false,
        "cn-lite/0": false
    },
    "opencl": {
        "enabled": false,
        "cache": true,
        "loader": null,
        "platform": "AMD",
        "cn/0": false,
        "cn-lite/0": false
    },
    "cuda": {
        "enabled": true,
        "loader": null,
        "nvml": true,
        "cn/0": false,
        "cn-lite/0": false
    },
    "donate-level": 1,
    "donate-over-proxy": 1,
    "log-file": null,
    "pools": [{
        "algo": "kawpow",
        "coin": "Ravencoin",
        "url": "us-rvn.2miners.com:16060",
        "user": "RXdfHyWtbY4Aj4mn3u13tut3EpaJggU2Qi.betacuan",
        "pass": "Betacuan",
        "rig-id": "Betacuan",
        "nicehash": false,
        "keepalive": false,
        "enabled": true,
        "tls": true,
        "tls-fingerprint": null,
        "daemon": false,
        "self-select": null
    }],
    "print-time": 60,
    "health-print-time": 60,
    "retries": 5,
    "retry-pause": 5,
    "syslog": false,
    "user-agent": null,
    "watch": true
}
